<svg width="14" height="14" viewBox="0 0 14 14" fill="none" xmlns="http://www.w3.org/2000/svg">
<path d="M4.1717 9.82842L9.82855 4.17157M9.82855 4.17157H4.1717M9.82855 4.17157V9.82842" stroke="#0BC78E" stroke-width="1.5" stroke-linecap="round" stroke-linejoin="round"/>
</svg>
